{
  "project_info": {
    "project_number": "706132137744",
    "firebase_url": "https://flowerhomehebron.firebaseio.com",
    "project_id": "flowerhomehebron",
    "storage_bucket": "flowerhomehebron.appspot.com"
  },
  "client": [
    {
      "client_info": {
        "mobilesdk_app_id": "1:706132137744:android:d9ce10229152eb6c",
        "android_client_info": {
          "package_name": "com.flowerhomehebron.flowerhome"
        }
      },
      "oauth_client": [
        {
          "client_id": "706132137744-d3lsph0m6kee11t5tne5sgfebvgclai0.apps.googleusercontent.com",
          "client_type": 1,
          "android_info": {
            "package_name": "com.flowerhomehebron.flowerhome",
            "certificate_hash": "694ff378bce27919c72d6080b35e5e0cd7027443"
          }
        },
        {
          "client_id": "706132137744-dul1sopr2kvha2j9sf514jaisnaseot1.apps.googleusercontent.com",
          "client_type": 3
        }
      ],
      "api_key": [
        {
          "current_key": "AIzaSyB9-xf5Rnvmsy5ekiF73IR_2t1Zl6RQjqM"
        }
      ],
      "services": {
        "analytics_service": {
          "status": 1
        },
        "appinvite_service": {
          "status": 2,
          "other_platform_oauth_client": [
            {
              "client_id": "706132137744-dul1sopr2kvha2j9sf514jaisnaseot1.apps.googleusercontent.com",
              "client_type": 3
            }
          ]
        },
        "ads_service": {
          "status": 2
        }
      }
    }
  ],
  "configuration_version": "1"
}